[gd_scene load_steps=4 format=2]

[ext_resource path="res://game/keys/key.gd" type="Script" id=1]
[ext_resource path="res://game/keys/beta.tres" type="Texture" id=2]

[sub_resource type="CircleShape2D" id=1]
radius = 7.41206

[node name="Beta" type="Sprite"]
modulate = Color( 0.733333, 1, 0, 1 )
texture = ExtResource( 2 )
region_enabled = true
region_rect = Rect2( 0, 0, 16, 16 )
script = ExtResource( 1 )

[node name="Area2D" type="Area2D" parent="."]

[node name="CollisionShape2D" type="CollisionShape2D" parent="Area2D"]
shape = SubResource( 1 )
[connection signal="body_entered" from="Area2D" to="." method="_on_Area2D_body_entered"]
