[gd_scene load_steps=10 format=2]

[ext_resource path="res://game/credits/credits.png" type="Texture" id=1]
[ext_resource path="res://game/sky/mr-blue-sky.tscn" type="PackedScene" id=2]

[sub_resource type="Shader" id=1]
code = "shader_type canvas_item;

void fragment() {
	COLOR = texture(TEXTURE, vec2(0., 1.) + vec2(1., -1.) * SCREEN_UV);
	if (COLOR.a > 0.01) {
		COLOR.a = 1.0;
	}
}"

[sub_resource type="ShaderMaterial" id=2]
shader = SubResource( 1 )

[sub_resource type="GDScript" id=7]
script/source = "extends Sprite


# Declare member variables here. Examples:
# var a = 2
# var b = \"text\"


# Called when the node enters the scene tree for the first time.
func _ready():
	pass # Replace with function body.


# Called every frame. 'delta' is the elapsed time since the previous frame.
#func _process(delta):
#	pass
"

[sub_resource type="Shader" id=3]
code = "shader_type canvas_item;

uniform sampler2D sky;
uniform float cloud_speed;
varying mat4 i2w;

/*
void vertex() {
	i2w = WORLD_MATRIX;
}
*/

void fragment() {
//	vec2 uv = fract(vec2((FRAGCOORD * i2w).xy) / 2048.);
//	vec2 uv = fract(UV * vec2(1., 1.));
//	COLOR = texture(cloud, UV);
//	COLOR = vec4(UV, 0., 1.);
	vec4 cc = texture(TEXTURE, fract(SCREEN_UV + vec2(0., sin(cloud_speed * TIME))));
	vec4 cs = texture(sky, SCREEN_UV.yx);
	COLOR = vec4(mix(cs.rgb, vec3(1.), cc.r * 0.7), 1.);
}"

[sub_resource type="Gradient" id=4]
offsets = PoolRealArray( 0, 0.296512, 0.604651, 1 )
colors = PoolColorArray( 0, 0.129737, 0.437012, 1, 0, 0.804688, 0.314331, 1, 0.284668, 0, 0, 1, 0.898438, 0.571174, 0, 1 )

[sub_resource type="GradientTexture" id=5]
gradient = SubResource( 4 )

[sub_resource type="ShaderMaterial" id=6]
shader = SubResource( 3 )
shader_param/cloud_speed = 0.001
shader_param/sky = SubResource( 5 )

[node name="Sprite" type="Sprite"]
material = SubResource( 2 )
scale = Vector2( 10, 10 )
texture = ExtResource( 1 )
script = SubResource( 7 )

[node name="Sky" parent="." instance=ExtResource( 2 )]
material = SubResource( 6 )
