[gd_scene load_steps=3 format=2]

[ext_resource path="res://game/scenes/DemoProcGeneration1.gd" type="Script" id=1]
[ext_resource path="res://game/bin/mazeholder.gdns" type="Script" id=2]

[node name="DemoProcGeneration1" type="Node2D"]
script = ExtResource( 1 )

[node name="MapLevelProcedural" type="Node2D" parent="."]
script = ExtResource( 2 )
